Medium Articles
…
wine_rating <- tt$`winemag-data-130k-v2` %>% 
  select(-X1)

Cleaning Data & EDA

wine_rating <- wine_rating %>% 
  mutate(year = as.integer(str_extract(title, "20\\d\\d")),
         year = ifelse(year < 2000, NA, year)) %>% 
  filter(!is.na(price))

wine_rating %>% 
  count(country, sort = TRUE)

# A tibble: 43 x 2
   country       n
   <chr>     <int>
 1 US        54265
 2 France    17776
 3 Italy     16914
 4 Spain      6573
 5 Portugal   4875
 6 Chile      4416
 7 Argentina  3756
 8 Austria    2799
 9 Australia  2294
10 Germany    2120
# … with 33 more rows

wine_rating %>% 
  count(designation, sort = TRUE)

# A tibble: 35,777 x 2
   designation        n
   <chr>          <int>
 1 <NA>           34779
 2 Reserve         1980
 3 Estate          1318
 4 Reserva         1219
 5 Estate Grown     618
 6 Riserva          607
 7 Brut             472
 8 Dry              406
 9 Estate Bottled   342
10 Crianza          338
# … with 35,767 more rows

wine_rating %>% 
  count(country, region_1, sort = TRUE)

# A tibble: 1,247 x 3
   country   region_1                 n
   <chr>     <chr>                <int>
 1 Portugal  <NA>                  4875
 2 US        Napa Valley           4475
 3 Chile     <NA>                  4416
 4 US        Columbia Valley (WA)  4109
 5 US        Russian River Valley  3090
 6 Austria   <NA>                  2799
 7 US        California            2627
 8 US        Paso Robles           2327
 9 US        Willamette Valley     2296
10 Argentina Mendoza               2275
# … with 1,237 more rows
…
How correlated between words

library(widyr)

wine_words_filtered <- wine_rating_words %>% 
  distinct(wine_id, word) %>% 
  add_count(word) %>% 
  filter(n >= 100) 

wine_words_filtered %>% 
  pairwise_cor(word , wine_id, sort = TRUE)

# A tibble: 5,501,370 x 3
   item1    item2    correlation
   <chr>    <chr>          <dbl>
 1 verde    vinho          0.985
 2 vinho    verde          0.985
 3 verdot   petit          0.969
 4 petit    verdot         0.969
 5 nacional touriga        0.956
 6 touriga  nacional       0.956
 7 sirah    petite         0.956
 8 petite   sirah          0.956
 9 smith    granny         0.921
10 granny   smith          0.921
# … with 5,501,360 more rows
…
