Stack Overflow
…
# A tibble: 5 x 2
  country            n
  <fct>          <int>
1 United States   3486
2 United Kingdom  1270
3 Germany          950
4 India            666
5 Canada           619

stack_overflow %>% 
  count(years_coded_job, sort = TRUE)

# A tibble: 21 x 2
   years_coded_job     n
             <dbl> <int>
 1               2   838
 2               1   750
 3               3   746
 4               4   634
 5              20   614
 6               5   574
 7               6   378
 8               9   347
 9               7   322
10              10   302
# … with 11 more rows
…
