Data Roasts: Tidy Models Intro
…
While it’s not perfect but better for modelling instead of using the untransformed data. However, the drawback of transformation is related to interpretation. For examples, the RMSE is used to measure the performance of model in regression models. It uses the difference between the observed and predicted values in its calculations. It is difficult to understand by RMSE in log-scale.

However, we stick with the log-transformation due to its superior in modelling

ames <- ames %>% 
  mutate(sale_price = log10(sale_price))

Spatial information

ames %>% 
  select(neighborhood, longitude, latitude)

# A tibble: 2,930 x 3
   neighborhood longitude latitude
   <fct>            <dbl>    <dbl>
 1 North_Ames       -93.6     42.1
 2 North_Ames       -93.6     42.1
 3 North_Ames       -93.6     42.1
 4 North_Ames       -93.6     42.1
 5 Gilbert          -93.6     42.1
 6 Gilbert          -93.6     42.1
 7 Stone_Brook      -93.6     42.1
 8 Stone_Brook      -93.6     42.1
 9 Stone_Brook      -93.6     42.1
10 Gilbert          -93.6     42.1
# … with 2,920 more rows
…
Training data contained 2199 data points and no missing data.

Operations:

Log transformation on gr_liv_area [trained]
Dummy variables from neighborhood, bldg_type [trained]

The third phase is to apply the preprocessing operations to a data set using the bake().

test_ex <- bake(simple_ames, new_data = ames_test)
test_ex

# A tibble: 731 x 35
   gr_liv_area year_built sale_price neighborhood_Co… neighborhood_Ol…
         <dbl>      <int>      <dbl>            <dbl>            <dbl>
 1        3.32       1968       5.39                0                0
 2        3.26       1999       5.28                0                0
 3        3.07       1992       5.27                0                0
 4        3.27       2010       5.60                0                0
 5        3.04       1971       5.02                0                0
 6        3.23       2007       5.49                0                0
 7        3.29       2009       5.60                0                0
 8        3.19       2005       5.34                0                0
 9        3.35       2002       5.51                0                0
10        3.12       2005       5.30                0                0
# … with 721 more rows, and 30 more variables:
#   neighborhood_Edwards <dbl>, neighborhood_Somerset <dbl>,
#   neighborhood_Northridge_Heights <dbl>,
#   neighborhood_Gilbert <dbl>, neighborhood_Sawyer <dbl>,
#   neighborhood_Northwest_Ames <dbl>,
#   neighborhood_Sawyer_West <dbl>, neighborhood_Mitchell <dbl>,
#   neighborhood_Brookside <dbl>, neighborhood_Crawford <dbl>,
#   neighborhood_Iowa_DOT_and_Rail_Road <dbl>,
#   neighborhood_Timberland <dbl>, neighborhood_Northridge <dbl>,
…
# get the result 
glance(lm_fit)

# A tibble: 1 x 12
  r.squared adj.r.squared  sigma statistic p.value    df logLik    AIC
      <dbl>         <dbl>  <dbl>     <dbl>   <dbl> <dbl>  <dbl>  <dbl>
1     0.822         0.816 0.0757      140.       0    70  2592. -5040.
# … with 4 more variables: BIC <dbl>, deviance <dbl>,
#   df.residual <int>, nobs <int>

# coefficients
tidy(lm_fit)

# A tibble: 71 x 5
   term                         estimate std.error statistic   p.value
   <chr>                           <dbl>     <dbl>     <dbl>     <dbl>
 1 (Intercept)                  -5.31e-1  0.296      -1.79   7.32e-  2
 2 gr_liv_area                   6.48e-1  0.0161     40.3    1.46e-264
 3 year_built                    1.94e-3  0.000139   13.9    2.69e- 42
 4 neighborhood_College_Creek   -8.98e-2  0.0332     -2.71   6.83e-  3
 5 neighborhood_Old_Town        -5.16e-2  0.0129     -4.01   6.20e-  5
 6 neighborhood_Edwards         -1.53e-1  0.0274     -5.57   2.91e-  8
 7 neighborhood_Somerset         3.64e-2  0.0189      1.92   5.50e-  2
 8 neighborhood_Northridge_Hei…  9.84e-2  0.0272      3.61   3.10e-  4
 9 neighborhood_Gilbert          7.28e-4  0.0219      0.0333 9.73e-  1
10 neighborhood_Sawyer          -1.56e-1  0.0263     -5.93   3.59e-  9
# … with 61 more rows
…
# A tibble: 3 x 5
  term        estimate std.error statistic  p.value
  <chr>          <dbl>     <dbl>     <dbl>    <dbl>
1 (Intercept)  -316.      14.9       -21.2 3.04e-91
2 longitude      -2.08     0.133     -15.6 3.21e-52
3 latitude        3.01     0.185      16.3 2.58e-56

Make predictions

Conform the 3 rules: * The results are always tibble * The columns are always predictable * Same rows as the input data set

predict(lm_form_fit, new_data = ames_test)

# A tibble: 731 x 1
   .pred
   <dbl>
 1  5.22
 2  5.29
 3  5.28
 4  5.26
 5  5.24
 6  5.33
 7  5.32
 8  5.32
 9  5.31
10  5.31
# … with 721 more rows

ames_test %>% 
  select(sale_price) %>% 
  bind_cols(predict(lm_form_fit, new_data = ames_test)) %>% 
  bind_cols(predict(lm_form_fit, new_data = ames_test, type = "pred_int")) # add prediction interval 

# A tibble: 731 x 4
   sale_price .pred .pred_lower .pred_upper
        <dbl> <dbl>       <dbl>       <dbl>
 1       5.39  5.22        4.90        5.53
 2       5.28  5.29        4.97        5.60
 3       5.27  5.28        4.96        5.59
 4       5.60  5.26        4.95        5.58
 5       5.02  5.24        4.93        5.55
 6       5.49  5.33        5.02        5.64
 7       5.60  5.32        5.01        5.64
 8       5.34  5.32        5.01        5.63
 9       5.51  5.31        5.00        5.63
10       5.30  5.31        4.99        5.62
# … with 721 more rows
…
Workflow and Recipes

lm_workflow <- lm_workflow %>%
  add_recipe(ames_rec)

# do prep(), bake(), fit() in one step 
lm_fit <- fit(lm_workflow, ames_train)

# do bake() and predict() in one step 
predict(lm_fit, ames_test)

# A tibble: 731 x 1
   .pred
   <dbl>
 1  5.31
 2  5.30
 3  5.17
 4  5.52
 5  5.09
 6  5.49
 7  5.51
 8  5.43
 9  5.55
10  5.24
# … with 721 more rows
…
# A tibble: 5 x 6
  number operation type     trained skip  id            
   <int> <chr>     <chr>    <lgl>   <lgl> <chr>         
1      1 step      log      TRUE    FALSE log_mmI2Z     
2      2 step      other    TRUE    FALSE other_e3mwB   
3      3 step      dummy    TRUE    FALSE dummy_Rh9Lx   
4      4 step      interact TRUE    FALSE interact_pkwDF
5      5 step      ns       TRUE    FALSE ns_ARVoa      

# fit 
lm_fit %>% 
  pull_workflow_fit() %>% 
  tidy()

# A tibble: 71 x 5
   term                         estimate std.error statistic   p.value
   <chr>                           <dbl>     <dbl>     <dbl>     <dbl>
 1 (Intercept)                  -5.31e-1  0.296      -1.79   7.32e-  2
 2 gr_liv_area                   6.48e-1  0.0161     40.3    1.46e-264
 3 year_built                    1.94e-3  0.000139   13.9    2.69e- 42
 4 neighborhood_College_Creek   -8.98e-2  0.0332     -2.71   6.83e-  3
 5 neighborhood_Old_Town        -5.16e-2  0.0129     -4.01   6.20e-  5
 6 neighborhood_Edwards         -1.53e-1  0.0274     -5.57   2.91e-  8
 7 neighborhood_Somerset         3.64e-2  0.0189      1.92   5.50e-  2
 8 neighborhood_Northridge_Hei…  9.84e-2  0.0272      3.61   3.10e-  4
 9 neighborhood_Gilbert          7.28e-4  0.0219      0.0333 9.73e-  1
10 neighborhood_Sawyer          -1.56e-1  0.0263     -5.93   3.59e-  9
# … with 61 more rows

Judging model effectiveness

Regresssion metrics

ames_test_res <- predict(lm_fit, new_data = ames_test %>% select(-sale_price))

ames_test_res <- bind_cols(ames_test_res, ames_test %>% select(sale_price))
ames_test_res

# A tibble: 731 x 2
   .pred sale_price
   <dbl>      <dbl>
 1  5.31       5.39
 2  5.30       5.28
 3  5.17       5.27
 4  5.52       5.60
 5  5.09       5.02
 6  5.49       5.49
 7  5.51       5.60
 8  5.43       5.34
 9  5.55       5.51
10  5.24       5.30
# … with 721 more rows
…
# F1 metri 
f_meas(two_class_example, truth, predicted)

# A tibble: 1 x 3
  .metric .estimator .estimate
  <chr>   <chr>          <dbl>
1 f_meas  binary         0.849

There are numerous classification metrics that use the predicted probabilities as inputs rather than the hard class predictions. For example, the receiver operating characteristic (ROC) curve computes the sensitivity and specificity over a continuum of different event thresholds.

two_class_curve <- roc_curve(two_class_example, truth, Class1)
two_class_curve

# A tibble: 502 x 3
   .threshold specificity sensitivity
        <dbl>       <dbl>       <dbl>
 1 -Inf           0                 1
 2    1.79e-7     0                 1
 3    4.50e-6     0.00413           1
 4    5.81e-6     0.00826           1
 5    5.92e-6     0.0124            1
 6    1.22e-5     0.0165            1
 7    1.40e-5     0.0207            1
 8    1.43e-5     0.0248            1
 9    2.38e-5     0.0289            1
10    3.30e-5     0.0331            1
# … with 492 more rows
…
Repeated Cross-Validation

There are a variety of variations on cross-validation. The most important is repeated V-fold cross-validation. Depending on the size or other characteristics of the data, the resampling estimate produced by V-fold cross-validation may be excessively noisy. As with many statistical problems, one way to reduce noise is to gather more data. For cross-validation, this means averaging more than V statistics.

To create R repeats of V-fold cross-validation, the same fold generation process is done R times to generate R collections of V partitions. Now, instead of averaging V statistics, VxR statistics produce the final resampling estimate. Due to the Central Limit Theorem, the summary statistics from each model tend toward a normal distribution.

vfold_cv(ames_train, v = 10, repeats = 5)

#  10-fold cross-validation repeated 5 times 
# A tibble: 50 x 3
   splits           id      id2   
   <list>           <chr>   <chr> 
 1 <split [2K/220]> Repeat1 Fold01
 2 <split [2K/220]> Repeat1 Fold02
 3 <split [2K/220]> Repeat1 Fold03
 4 <split [2K/220]> Repeat1 Fold04
 5 <split [2K/220]> Repeat1 Fold05
 6 <split [2K/220]> Repeat1 Fold06
 7 <split [2K/220]> Repeat1 Fold07
 8 <split [2K/220]> Repeat1 Fold08
 9 <split [2K/220]> Repeat1 Fold09
10 <split [2K/219]> Repeat1 Fold10
# … with 40 more rows
…
# average 
collect_metrics(rf_res)

# A tibble: 2 x 5
  .metric .estimator   mean     n std_err
  <chr>   <chr>       <dbl> <int>   <dbl>
1 rmse    standard   0.0708    10 0.00176
2 rsq     standard   0.840     10 0.00829

# collect predictions 
assess_res <- collect_predictions(rf_res)
assess_res

# A tibble: 2,199 x 4
   id     .pred  .row sale_price
   <chr>  <dbl> <int>      <dbl>
 1 Fold01  5.24    11       5.23
 2 Fold01  5.36    47       5.35
 3 Fold01  5.42    52       5.46
 4 Fold01  5.15    94       5.15
 5 Fold01  5.16   111       5.15
 6 Fold01  5.13   115       5.04
 7 Fold01  5.11   117       5.16
 8 Fold01  5.10   118       5.11
 9 Fold01  5.15   134       5.03
10 Fold01  5.06   140       5.18
# … with 2,189 more rows
…
