Medium Articles
…
library(tidyverse)
library(tidytext)
theme_set(theme_light())

tt <- tidytuesdayR::tt_load("2018-12-04")

    Downloading file 1 of 1: `medium_datasci.csv`

medium_datasci <- tt$medium_datasci %>% 
  select(-x1)

medium_datasci %>% 
  count(publication, sort = TRUE)

# A tibble: 7,298 x 2
   publication                                                       n
   <chr>                                                         <int>
 1 <NA>                                                          44072
 2 Towards Data Science                                           3135
 3 Hacker Noon                                                    1178
 4 Becoming Human: Artificial Intelligence Magazine                671
 5 Chatbots Life                                                   450
 6 Data Driven Investor                                            351
 7 Chatbots Magazine                                               350
 8 SyncedReview                                                    320
 9 Planeta Chatbot todo sobre los Chatbots y la Inteligencia Ar…   294
10 DEEPAERODRONES                                                  273
# … with 7,288 more rows

medium_datasci %>% 
  count(author, sort = TRUE)

# A tibble: 33,305 x 2
   author                   n
   <chr>                <int>
 1 Yves Mulkers           487
 2 Synced                 328
 3 <NA>                   286
 4 DEEP AERO DRONES       279
 5 AI Hawk                245
 6 Peter Marshall         209
 7 Ilexa Yardley          162
 8 Alibaba Cloud          160
 9 Corsair's Publishing   156
10 Jae Duk Seo            150
# … with 33,295 more rows
…
